…
```r
deserts %>%
  filter(!is.na(weight) & !is.na(hindfoot_length) & !is.na(sex)) %>%
  mutate(weight_to_hindfoot_ratio = weight / hindfoot_length) %>%
  filter(species %in% c("albigula", "spectabilis")) %>%
  arrange(desc(weight_to_hindfoot_ratio))
```

```
## # A tibble: 3,068 × 14
##    record_id month   day  year plot_id species_id sex   hindfoot_length weight
##        <dbl> <dbl> <dbl> <dbl>   <dbl> <chr>      <chr>           <dbl>  <dbl>
##  1     12871     5    28  1987       2 NL         M                  32    278
##  2     33049    11    17  2001      12 NL         M                  33    280
##  3     12729     4    26  1987       2 NL         M                  32    270
##  4      2133    10    25  1979       2 NL         F                  33    274
##  5     12299     2     1  1987       2 NL         M                  32    253
##  6     13025     7     1  1987       2 NL         M                  33    260
##  7     31862     3    24  2001       2 NL         F                  32    252
##  8      8869     2     5  1984      15 NL         M                  33    259
##  9     12458     3     2  1987       2 NL         M                  33    259
## 10     30175     1     8  2000       2 NL         M                  34    265
## # ℹ 3,058 more rows
## # ℹ 5 more variables: genus <chr>, species <chr>, taxa <chr>, plot_type <chr>,
## #   weight_to_hindfoot_ratio <dbl>
```
…
