…
**4. Your answer above doesn't tell the whole story since life expectancy varies by region. Make a summary that shows the min, mean, and max life expectancy by continent for all years represented in the data.**


```r
gapminder %>%
  group_by(year, continent) %>%
  summarize(min_lifeExp = min(lifeExp),
            mean_lifeExp = mean(lifeExp),
            max_lifeExp = max(lifeExp), .groups='keep') #keep to get rid of the second window
```

```
## # A tibble: 60 × 5
## # Groups:   year, continent [60]
##     year continent min_lifeExp mean_lifeExp max_lifeExp
##    <int> <fct>           <dbl>        <dbl>       <dbl>
##  1  1952 Africa           30           39.1        52.7
##  2  1952 Americas         37.6         53.3        68.8
##  3  1952 Asia             28.8         46.3        65.4
##  4  1952 Europe           43.6         64.4        72.7
##  5  1952 Oceania          69.1         69.3        69.4
##  6  1957 Africa           31.6         41.3        58.1
##  7  1957 Americas         40.7         56.0        70.0
##  8  1957 Asia             30.3         49.3        67.8
##  9  1957 Europe           48.1         66.7        73.5
## 10  1957 Oceania          70.3         70.3        70.3
## # ℹ 50 more rows
```
…
```r
gapminder_w <- gapminder %>% 
  filter(year %in% c(1952, 2007)) %>%
  select(year, pop, country) %>%
  group_by(country) %>%
  pivot_wider(names_from = year,
              values_from = pop) %>%
  mutate(population_growth = `2007` - `1952`) %>%
  arrange(desc(population_growth))

gapminder_w
```

```
## # A tibble: 142 × 4
## # Groups:   country [142]
##    country          `1952`     `2007` population_growth
##    <fct>             <int>      <int>             <int>
##  1 China         556263527 1318683096         762419569
##  2 India         372000000 1110396331         738396331
##  3 United States 157553000  301139947         143586947
##  4 Indonesia      82052000  223547000         141495000
##  5 Brazil         56602560  190010647         133408087
##  6 Pakistan       41346560  169270617         127924057
##  7 Bangladesh     46886859  150448339         103561480
##  8 Nigeria        33119096  135031164         101912068
##  9 Mexico         30144317  108700891          78556574
## 10 Philippines    22438691   91077287          68638596
## # ℹ 132 more rows
```
…
```r
gapminder_w <- gapminder %>%
  arrange(desc(gdpPercap)) %>%
  head(50)

gapminder_p <- gapminder %>%
  filter(year %in% c(1952, 2007)) %>%
  filter(country %in% gapminder_w$country) %>%
  select(year, gdpPercap, pop, country)

head(gapminder_p, 50)
```

```
## # A tibble: 40 × 4
##     year gdpPercap      pop country  
##    <int>     <dbl>    <int> <fct>    
##  1  1952    10040.  8691212 Australia
##  2  2007    34435. 20434176 Australia
##  3  1952     6137.  6927772 Austria  
##  4  2007    36126.  8199783 Austria  
##  5  1952     8343.  8730405 Belgium  
##  6  2007    33693. 10392226 Belgium  
##  7  1952    11367. 14785584 Canada   
##  8  2007    36319. 33390141 Canada   
##  9  1952     9692.  4334000 Denmark  
## 10  2007    35278.  5468120 Denmark  
## # ℹ 30 more rows
```
…
