…
```
## # A tibble: 1 × 1
##   number_nas
##        <int>
## 1          0
```

```r
amniota %>% miss_var_summary()
```

```
## # A tibble: 36 × 3
##    variable                  n_miss pct_miss
##    <chr>                      <int>    <dbl>
##  1 class                          0        0
##  2 order                          0        0
##  3 family                         0        0
##  4 genus                          0        0
##  5 species                        0        0
##  6 subspecies                     0        0
##  7 common_name                    0        0
##  8 female_maturity_d              0        0
##  9 litter_or_clutch_size_n        0        0
## 10 litters_or_clutches_per_y      0        0
## # ℹ 26 more rows
```
…
```
## # A tibble: 1 × 1
##   number_nas
##        <int>
## 1     170566
```


```r
amphibio %>% miss_var_summary()
```

```
## # A tibble: 38 × 3
##    variable n_miss pct_miss
##    <chr>     <int>    <dbl>
##  1 fruits     6774    100. 
##  2 flowers    6772     99.9
##  3 seeds      6772     99.9
##  4 leaves     6752     99.6
##  5 dry_cold   6735     99.4
##  6 vert       6657     98.2
##  7 obs        6651     98.2
##  8 wet_cold   6625     97.8
##  9 crepu      6608     97.5
## 10 dry_warm   6572     97.0
## # ℹ 28 more rows
```
…
```
## # A tibble: 0 × 2
## # ℹ 2 variables: species <chr>, female_maturity_d <dbl>
```


**6. Use the package `naniar` to produce a summary, including percentages, of missing data in each column for the `amniota` data.**  

```r
naniar::miss_var_summary(amniota)
```

```
## # A tibble: 36 × 3
##    variable                  n_miss pct_miss
##    <chr>                      <int>    <dbl>
##  1 class                          0        0
##  2 order                          0        0
##  3 family                         0        0
##  4 genus                          0        0
##  5 species                        0        0
##  6 subspecies                     0        0
##  7 common_name                    0        0
##  8 female_maturity_d              0        0
##  9 litter_or_clutch_size_n        0        0
## 10 litters_or_clutches_per_y      0        0
## # ℹ 26 more rows
```

**7. Use the package `naniar` to produce a summary, including percentages, of missing data in each column for the `amphibio` data.**

```r
naniar::miss_var_summary(amphibio)
```

```
## # A tibble: 38 × 3
##    variable n_miss pct_miss
##    <chr>     <int>    <dbl>
##  1 fruits     6774    100. 
##  2 flowers    6772     99.9
##  3 seeds      6772     99.9
##  4 leaves     6752     99.6
##  5 dry_cold   6735     99.4
##  6 vert       6657     98.2
##  7 obs        6651     98.2
##  8 wet_cold   6625     97.8
##  9 crepu      6608     97.5
## 10 dry_warm   6572     97.0
## # ℹ 28 more rows
```
…
