…
```r
colleges
```

```
## # A tibble: 341 × 10
##    instnm      city  stabbr zip   adm_rate sat_avg pcip26 costt4_a c150_4_pooled
##    <chr>       <chr> <chr>  <chr>    <dbl>   <dbl>  <dbl>    <dbl>         <dbl>
##  1 Grossmont … El C… CA     9202…       NA      NA 0.0016     7956        NA    
##  2 College of… Visa… CA     9327…       NA      NA 0.0066     8109        NA    
##  3 College of… San … CA     9440…       NA      NA 0.0038     8278        NA    
##  4 Ventura Co… Vent… CA     9300…       NA      NA 0.0035     8407        NA    
##  5 Oxnard Col… Oxna… CA     9303…       NA      NA 0.0085     8516        NA    
##  6 Moorpark C… Moor… CA     9302…       NA      NA 0.0151     8577        NA    
##  7 Skyline Co… San … CA     9406…       NA      NA 0          8580         0.233
##  8 Glendale C… Glen… CA     9120…       NA      NA 0.002      9181        NA    
##  9 Citrus Col… Glen… CA     9174…       NA      NA 0.0021     9281        NA    
## 10 Fresno Cit… Fres… CA     93741       NA      NA 0.0324     9370        NA    
## # ℹ 331 more rows
## # ℹ 1 more variable: pftftug1_ef <dbl>
```
…
I think that this graph shows a trend in which we see an increase in the four-year completion rate with the increasing cost, but it is not as strong as the one we see with the admissions rate. 

8. The column titled `INSTNM` is the institution name. We are only interested in the University of California colleges. Make a new data frame that is restricted to UC institutions. You can remove `Hastings College of Law` and `UC San Francisco` as we are only interested in undergraduate institutions.

```r
univ_calif_final <- colleges %>%
  filter(stabbr == "CA" & instnm != "Hastings College of Law" & instnm != "UC San Francisco")
univ_calif_final
```

```
## # A tibble: 339 × 10
##    instnm      city  stabbr zip   adm_rate sat_avg pcip26 costt4_a c150_4_pooled
##    <chr>       <chr> <chr>  <chr>    <dbl>   <dbl>  <dbl>    <dbl>         <dbl>
##  1 Grossmont … El C… CA     9202…       NA      NA 0.0016     7956        NA    
##  2 College of… Visa… CA     9327…       NA      NA 0.0066     8109        NA    
##  3 College of… San … CA     9440…       NA      NA 0.0038     8278        NA    
##  4 Ventura Co… Vent… CA     9300…       NA      NA 0.0035     8407        NA    
##  5 Oxnard Col… Oxna… CA     9303…       NA      NA 0.0085     8516        NA    
##  6 Moorpark C… Moor… CA     9302…       NA      NA 0.0151     8577        NA    
##  7 Skyline Co… San … CA     9406…       NA      NA 0          8580         0.233
##  8 Glendale C… Glen… CA     9120…       NA      NA 0.002      9181        NA    
##  9 Citrus Col… Glen… CA     9174…       NA      NA 0.0021     9281        NA    
## 10 Fresno Cit… Fres… CA     93741       NA      NA 0.0324     9370        NA    
## # ℹ 329 more rows
## # ℹ 1 more variable: pftftug1_ef <dbl>
```
…
```
## Warning: Expected 2 pieces. Additional pieces discarded in 264 rows [2, 3, 8, 10, 16,
## 17, 18, 20, 21, 22, 23, 24, 26, 29, 30, 31, 33, 36, 37, 40, ...].
```

```
## Warning: Expected 2 pieces. Missing pieces filled with `NA` in 3 rows [242,
## 243, 244].
```

```
## # A tibble: 339 × 11
##    univ      campus    city      stabbr zip     adm_rate sat_avg pcip26 costt4_a
##    <chr>     <chr>     <chr>     <chr>  <chr>      <dbl>   <dbl>  <dbl>    <dbl>
##  1 Grossmont College   El Cajon  CA     92020-…       NA      NA 0.0016     7956
##  2 College   of        Visalia   CA     93277-…       NA      NA 0.0066     8109
##  3 College   of        San Mateo CA     94402-…       NA      NA 0.0038     8278
##  4 Ventura   College   Ventura   CA     93003-…       NA      NA 0.0035     8407
##  5 Oxnard    College   Oxnard    CA     93033-…       NA      NA 0.0085     8516
##  6 Moorpark  College   Moorpark  CA     93021-…       NA      NA 0.0151     8577
##  7 Skyline   College   San Bruno CA     94066-…       NA      NA 0          8580
##  8 Glendale  Community Glendale  CA     91208-…       NA      NA 0.002      9181
##  9 Citrus    College   Glendora  CA     91741-…       NA      NA 0.0021     9281
## 10 Fresno    City      Fresno    CA     93741         NA      NA 0.0324     9370
## # ℹ 329 more rows
## # ℹ 2 more variables: c150_4_pooled <dbl>, pftftug1_ef <dbl>
```
…
