…
5. (3 points) How do the number and types of injuries compare by county? Make a table (not a plot) that shows the number of injury types by county. Which county has the highest number of fatalities?  

```r
sharks %>%
  filter(injury!="none"| injury!= "none*") %>%
  group_by(county) %>%
  count(injury) %>%
  arrange(n)
```

```
## # A tibble: 57 × 3
## # Groups:   county [21]
##    county               injury     n
##    <chr>                <chr>  <int>
##  1 Del Norte            none       1
##  2 Island - Catalina    minor      1
##  3 Island - San Miguel  fatal      1
##  4 Island - San Nicolas minor      1
##  5 Island - Santa Cruz  minor      1
##  6 Island - Santa Cruz  none       1
##  7 Island - Santa Rosa  major      1
##  8 Los Angeles          fatal      1
##  9 Mendocino            fatal      1
## 10 Mendocino            minor      1
## # ℹ 47 more rows
```
…
